Vidigi vs BupaR – vidigi
…
# Variables were mapped as follows:
Case identifier:        patient 
Activity identifier:        event_name 
Resource identifier:        resource_id_full 
Activity instance identifier:   activity_id 
Timestamp:          time 
Lifecycle transition:       event_stage 

# A tibble: 4,056 × 13
   patient pathway    event    event_type minutes_after_origin resource_id   run
   <fct>   <chr>      <chr>    <chr>                     <dbl>       <dbl> <dbl>
 1 1       Non-Trauma triage_… resource_…                 3.29           1     0
 2 1       Non-Trauma triage_… resource_…                 7.36           1     0
 3 1       Non-Trauma MINORS_… resource_…                 7.36           1     0
 4 1       Non-Trauma MINORS_… resource_…                15.4            1     0
 5 1       Non-Trauma MINORS_… resource_…                15.4            1     0
 6 1       Non-Trauma MINORS_… resource_…                31.6            1     0
 7 2       Non-Trauma triage_… resource_…                 3.29           2     0
 8 2       Non-Trauma triage_… resource_…                 9.41           2     0
 9 2       Non-Trauma MINORS_… resource_…                 9.41           2     0
10 2       Non-Trauma MINORS_… resource_…                17.1            2     0
# ℹ 4,046 more rows
# ℹ 6 more variables: event_stage <chr>, event_name <chr>,
#   resource_id_full <chr>, activity_id <dbl>, time <dttm>, .order <int>
…
